{
  "name": "fontelico",
  "css_prefix_text": "icon-",
  "css_use_suffix": false,
  "hinting": true,
  "units_per_em": 1000,
  "ascent": 850,
  "glyphs": [
    {
      "uid": "c64623255a4a7c72436b199b05296c4f",
      "css": "emo-happy",
      "code": 59392,
      "src": "fontelico"
    },
    {
      "uid": "1ba44825e5f10920b4e3f1d0c73f79a2",
      "css": "emo-wink",
      "code": 59393,
      "src": "fontelico"
    },
    {
      "uid": "4bb2045a2aca451705fe8a23c4a576ab",
      "css": "emo-wink2",
      "code": 59411,
      "src": "fontelico"
    },
    {
      "uid": "53ed8570225581269cd7eff5795e8bea",
      "css": "emo-unhappy",
      "code": 59394,
      "src": "fontelico"
    },
    {
      "uid": "fd59eac4d575b48eb156590b63a355fd",
      "css": "emo-sleep",
      "code": 59395,
      "src": "fontelico"
    },
    {
      "uid": "142263941b9f4cd4b2b84f1f4cd13b1d",
      "css": "emo-thumbsup",
      "code": 59396,
      "src": "fontelico"
    },
    {
      "uid": "4dd56d61fd0dab19277824da301424b3",
      "css": "emo-devil",
      "code": 59397,
      "src": "fontelico"
    },
    {
      "uid": "68e298ff2d8b25dd7f647ed64f5ae690",
      "css": "emo-surprised",
      "code": 59398,
      "src": "fontelico"
    },
    {
      "uid": "bb68a13a3574b087d4350eff0b8d48e3",
      "css": "emo-tongue",
      "code": 59399,
      "src": "fontelico"
    },
    {
      "uid": "48cc210e59ff4bc56b6c8fba6eb384b8",
      "css": "emo-coffee",
      "code": 59400,
      "src": "fontelico"
    },
    {
      "uid": "078fec38562c3f83a1201a908040c141",
      "css": "emo-sunglasses",
      "code": 59401,
      "src": "fontelico"
    },
    {
      "uid": "043b585886018be7408f4c77c1a3759c",
      "css": "emo-displeased",
      "code": 59402,
      "src": "fontelico"
    },
    {
      "uid": "3a900d0e9f43f5409211f62bec557379",
      "css": "emo-beer",
      "code": 59403,
      "src": "fontelico"
    },
    {
      "uid": "cbc328d1c779a2b9e3b1199d904199a5",
      "css": "emo-grin",
      "code": 59404,
      "src": "fontelico"
    },
    {
      "uid": "f0d3ad15d020cf187d42dd3b2295b65c",
      "css": "emo-angry",
      "code": 59405,
      "src": "fontelico"
    },
    {
      "uid": "5195e2dcb4a63fbb8c09896a8058f6ab",
      "css": "emo-saint",
      "code": 59406,
      "src": "fontelico"
    },
    {
      "uid": "04688d76a33ce7a7950e40fae79c08ac",
      "css": "emo-cry",
      "code": 59407,
      "src": "fontelico"
    },
    {
      "uid": "4843d0d6050dd508d4c101a334f46db2",
      "css": "emo-shoot",
      "code": 59408,
      "src": "fontelico"
    },
    {
      "uid": "fc92480dedc439d274d4e3e4b425edf4",
      "css": "emo-squint",
      "code": 59409,
      "src": "fontelico"
    },
    {
      "uid": "2bd5f98482d86649958312ea2ab5bb40",
      "css": "emo-laugh",
      "code": 59410,
      "src": "fontelico"
    },
    {
      "uid": "72109d2fb3088d0e66ea6a9204297651",
      "css": "spin1",
      "code": 59440,
      "src": "fontelico"
    },
    {
      "uid": "f0c301ac841dafc38d8eb1b933fc73e5",
      "css": "spin2",
      "code": 59441,
      "src": "fontelico"
    },
    {
      "uid": "2a6740fc2f9d0edea54205963f662594",
      "css": "spin3",
      "code": 59442,
      "src": "fontelico"
    },
    {
      "uid": "9bd60140934a1eb9236fd7a8ab1ff6ba",
      "css": "spin4",
      "code": 59444,
      "src": "fontelico"
    },
    {
      "uid": "5d2d07f112b8de19f2c0dbfec3e42c05",
      "css": "spin5",
      "code": 59448,
      "src": "fontelico"
    },
    {
      "uid": "9bc2902722abb366a213a052ade360bc",
      "css": "spin6",
      "code": 59449,
      "src": "fontelico"
    },
    {
      "uid": "62c089cb34e74b3a1200bc7f5314eb4e",
      "css": "firefox",
      "code": 59456,
      "src": "fontelico"
    },
    {
      "uid": "9c2b737b16ae2c8d66b7bfd29ba5ecd8",
      "css": "chrome",
      "code": 59457,
      "src": "fontelico"
    },
    {
      "uid": "45861dd1e5ce4fde338bcccf01eeb808",
      "css": "opera",
      "code": 59458,
      "src": "fontelico"
    },
    {
      "uid": "2a46f1d1c9bd036e17a74e46613c1636",
      "css": "ie",
      "code": 59459,
      "src": "fontelico"
    },
    {
      "uid": "186dec7a13156bbe2550790c158fb85d",
      "css": "crown",
      "code": 59460,
      "src": "fontelico"
    },
    {
      "uid": "36ef9feb0754335302784521267a9ad4",
      "css": "crown-plus",
      "code": 59461,
      "src": "fontelico"
    },
    {
      "uid": "ec8496ef645f3be7b28147ec60cd9ab1",
      "css": "crown-minus",
      "code": 59462,
      "src": "fontelico"
    },
    {
      "uid": "8ce732688587909ad0a9d8323eaca8ad",
      "css": "marquee",
      "code": 59463,
      "src": "fontelico"
    }
  ]
}